{
    "name": "Branch",
  "fields": [],
  "relationships": [],
    "changelogDate": "20190816135651",
    "entityTableName": "branch",
    "dto": "no",
    "pagination": "pagination",
    "service": "serviceClass",
    "jpaMetamodelFiltering": false,
    "fluentMethods": true,
    "clientRootFolder": "",
    "applications": [
        "pagoMundoApi"
    ],
  "searchEngine": "elasticsearch",
  "databaseType": "sql"
}
