{
    "fluentMethods": true,
    "clientRootFolder": "",
    "relationships": [
        {
            "relationshipName": "extendedUser",
            "otherEntityName": "extendedUser",
            "relationshipType": "many-to-one",
            "otherEntityField": "id",
            "otherEntityRelationshipName": "flatCommission"
        }
    ],
    "fields": [
        {
            "fieldName": "upTo",
            "fieldType": "BigDecimal"
        },
        {
            "fieldName": "commission",
            "fieldType": "Float"
        },
        {
            "fieldName": "description",
            "fieldType": "String"
        },
        {
            "fieldName": "dateCreated",
            "fieldType": "ZonedDateTime"
        },
        {
            "fieldName": "lastUpdated",
            "fieldType": "ZonedDateTime"
        }
    ],
    "changelogDate": "20201222202540",
    "dto": "no",
    "searchEngine": "elasticsearch",
    "service": "serviceClass",
    "entityTableName": "flat_commission",
    "databaseType": "sql",
    "jpaMetamodelFiltering": false,
    "pagination": "pagination"
}
